# Blender v2.72 (sub 0) OBJ File: 'Computer6_texPlacement.blend'
# www.blender.org
o Cube.012_Cube.055
v 0.059807 0.039785 -0.003324
v 0.059807 0.039785 -0.021075
v -0.021662 0.039785 -0.021075
v -0.021662 0.039785 -0.003324
v 0.059807 0.095355 -0.003324
v 0.059807 0.095355 -0.021075
v -0.021662 0.095355 -0.021075
v -0.021662 0.095355 -0.003324
v 0.059807 0.111243 -0.003324
v 0.059807 0.111243 -0.021075
v -0.021662 0.111243 -0.021075
v -0.021662 0.111243 -0.003324
v 0.059807 0.166814 -0.003324
v 0.059807 0.166814 -0.021075
v -0.021662 0.166814 -0.021075
v -0.021662 0.166814 -0.003324
v 0.059807 0.189179 -0.003324
v 0.059807 0.189179 -0.021075
v -0.021662 0.189179 -0.021075
v -0.021662 0.189179 -0.003324
v 0.059807 0.244750 -0.003324
v 0.059807 0.244750 -0.021075
v -0.021662 0.244750 -0.021075
v -0.021662 0.244750 -0.003324
v 0.059807 0.263963 -0.003324
v 0.059807 0.263963 -0.021075
v -0.021662 0.263963 -0.021075
v -0.021662 0.263963 -0.003324
v 0.059807 0.319534 -0.003324
v 0.059807 0.319534 -0.021075
v -0.021662 0.319534 -0.021075
v -0.021662 0.319534 -0.003324
v 0.059807 0.382276 -0.003324
v 0.059807 0.382276 -0.021075
v -0.021662 0.382276 -0.021075
v -0.021662 0.382276 -0.003324
v 0.059807 0.437847 -0.003324
v 0.059807 0.437847 -0.021075
v -0.021662 0.437847 -0.021075
v -0.021662 0.437847 -0.003324
v 0.059807 0.452539 -0.003324
v 0.059807 0.452539 -0.021075
v -0.021662 0.452539 -0.021075
v -0.021662 0.452539 -0.003324
v 0.059807 0.508109 -0.003324
v 0.059807 0.508109 -0.021075
v -0.021662 0.508109 -0.021075
v -0.021662 0.508109 -0.003324
v 0.059807 0.525222 -0.003324
v 0.059807 0.525222 -0.021075
v -0.021662 0.525222 -0.021075
v -0.021662 0.525222 -0.003324
v 0.059807 0.580793 -0.003324
v 0.059807 0.580793 -0.021075
v -0.021662 0.580793 -0.021075
v -0.021662 0.580793 -0.003324
v 0.059807 0.597906 -0.003324
v 0.059807 0.597906 -0.021075
v -0.021662 0.597906 -0.021075
v -0.021662 0.597906 -0.003324
v 0.059807 0.653476 -0.003324
v 0.059807 0.653476 -0.021075
v -0.021662 0.653476 -0.021075
v -0.021662 0.653476 -0.003324
v -0.065014 0.002769 0.011642
v -0.065014 0.002769 -0.011172
v -0.065014 0.714129 0.011642
v -0.065014 0.714129 -0.011172
v 0.082119 0.714129 0.011642
v 0.082119 0.002769 0.011642
v -0.065014 0.714129 0.008051
v -0.065014 0.002769 0.008051
v 0.082119 0.002769 -0.011172
v -0.065014 0.714129 -0.007327
v 0.082119 0.714129 -0.011172
v -0.065014 0.002769 -0.007327
v 0.082119 0.413912 0.011642
v -0.065014 0.408055 0.008051
v -0.065014 0.408055 -0.007327
v 0.082119 0.413912 -0.011172
v -0.065014 0.419770 0.008051
v -0.065014 0.419770 -0.007327
v -0.081059 0.714129 0.008051
v -0.081059 0.002769 0.008051
v -0.081059 0.714129 -0.007327
v -0.081059 0.002769 -0.007327
v -0.081059 0.408055 0.008051
v -0.081059 0.408055 -0.007327
v -0.081059 0.419770 0.008051
v -0.081059 0.419770 -0.007327
v 0.010084 0.714129 0.011642
v 0.010084 0.714129 -0.011172
v 0.010084 0.002769 -0.011172
v 0.010084 0.002769 0.011642
v 0.043804 0.002769 0.011642
v 0.026944 0.706490 -0.011172
v 0.043804 0.714129 -0.011172
v 0.043804 0.714129 0.011642
v 0.026944 0.706490 0.011642
v 0.026944 0.010409 0.011642
v 0.043804 0.002769 -0.011172
v 0.026944 0.010409 -0.011172
v -0.028231 0.706490 0.011642
v -0.011618 0.002769 -0.011172
v -0.028231 0.010409 -0.011172
v -0.011618 0.002769 0.011642
v -0.028231 0.010409 0.011642
v -0.044844 0.002769 0.011642
v -0.044844 0.002769 -0.011172
v 0.000527 0.413912 -0.011172
v -0.065014 0.408055 -0.011172
v -0.044844 0.714129 -0.011172
v -0.028231 0.706490 -0.011172
v -0.044844 0.714129 0.011642
v -0.011618 0.714129 0.011642
v -0.011618 0.714129 -0.011172
v 0.000527 0.413912 0.011642
v -0.037427 0.009130 -0.011172
v -0.037427 0.009130 0.011642
v -0.065014 0.419770 -0.011172
v -0.037427 0.708022 -0.011172
v -0.037427 0.708022 0.011642
v -0.065014 0.408055 0.011642
v -0.065014 0.419770 0.011642
v -0.019035 0.009130 -0.011172
v -0.019035 0.009130 0.011642
v -0.019035 0.708022 -0.011172
v -0.019035 0.708022 0.011642
v 0.017748 0.009130 -0.011172
v 0.017748 0.009130 0.011642
v 0.017748 0.708022 0.011642
v 0.017748 0.708022 -0.011172
v 0.036140 0.708022 0.011642
v 0.036140 0.009130 0.011642
v 0.036140 0.009130 -0.011172
v 0.036140 0.708022 -0.011172
vt 0.967041 0.611090
vt 0.940066 0.611090
vt 0.940066 0.533569
vt 0.848992 0.003823
vt 0.848992 0.107643
vt 0.756546 0.107643
vt 0.932372 0.749159
vt 0.959348 0.749159
vt 0.959348 0.826681
vt 0.957273 0.330576
vt 0.930297 0.330576
vt 0.930297 0.226755
vt 0.923254 0.741513
vt 0.896279 0.741513
vt 0.896279 0.637693
vt 0.801429 0.756501
vt 0.828404 0.756501
vt 0.828404 0.834023
vt 0.758621 0.748855
vt 0.758621 0.645035
vt 0.851067 0.645035
vt 0.657055 0.756501
vt 0.684031 0.756501
vt 0.684031 0.834023
vt 0.557565 0.576846
vt 0.584541 0.576846
vt 0.584541 0.680666
vt 0.584541 0.792132
vt 0.557565 0.792132
vt 0.557565 0.688312
vt 0.966391 0.226755
vt 0.993366 0.226755
vt 0.993366 0.304277
vt 0.756546 0.219109
vt 0.756546 0.115289
vt 0.848992 0.115289
vt 0.993366 0.389444
vt 0.966391 0.389444
vt 0.966391 0.311923
vt 0.593659 0.688312
vt 0.620634 0.688312
vt 0.620634 0.792132
vt 0.887161 0.741513
vt 0.860186 0.741513
vt 0.860186 0.637693
vt 0.693149 0.756501
vt 0.720124 0.756501
vt 0.720124 0.834023
vt 0.756546 0.330576
vt 0.756546 0.226755
vt 0.848992 0.226755
vt 0.765336 0.756501
vt 0.792311 0.756501
vt 0.792311 0.834023
vt 0.858110 0.226755
vt 0.885086 0.226755
vt 0.885086 0.330576
vt 0.620634 0.680666
vt 0.593659 0.680666
vt 0.593659 0.576846
vt 0.968466 0.637693
vt 0.995441 0.637693
vt 0.995441 0.715215
vt 0.758621 0.525923
vt 0.758621 0.422103
vt 0.851067 0.422103
vt 0.968466 0.749159
vt 0.995441 0.749159
vt 0.995441 0.826681
vt 0.657055 0.645035
vt 0.684031 0.645035
vt 0.684031 0.748855
vt 0.930948 0.525923
vt 0.903973 0.525923
vt 0.903973 0.422103
vt 0.923254 0.826681
vt 0.896279 0.826681
vt 0.896279 0.749159
vt 0.851067 0.533569
vt 0.851067 0.637389
vt 0.758621 0.637389
vt 0.729242 0.756501
vt 0.756217 0.756501
vt 0.756217 0.834023
vt 0.964966 0.107643
vt 0.937991 0.107643
vt 0.937991 0.003823
vt 0.921179 0.330576
vt 0.894204 0.330576
vt 0.894204 0.226755
vt 0.967041 0.499624
vt 0.940066 0.499624
vt 0.940066 0.422103
vt 0.749502 0.533569
vt 0.749502 0.637389
vt 0.657055 0.637389
vt 0.860186 0.749159
vt 0.887161 0.749159
vt 0.887161 0.826681
vt 0.959348 0.741513
vt 0.932372 0.741513
vt 0.932372 0.637693
vt 0.928873 0.107643
vt 0.901898 0.107643
vt 0.901898 0.003823
vt 0.903973 0.533569
vt 0.930948 0.533569
vt 0.930948 0.611090
vt 0.657055 0.525923
vt 0.657055 0.422103
vt 0.749502 0.422103
vt 0.937991 0.115289
vt 0.964966 0.115289
vt 0.964966 0.192811
vt 0.722527 0.645035
vt 0.749502 0.645035
vt 0.749502 0.748855
vt 0.928873 0.219109
vt 0.901898 0.219109
vt 0.901898 0.115289
vt 0.504660 0.422628
vt 0.504660 0.996177
vt 0.469991 0.996177
vt 0.892779 0.049974
vt 0.858111 0.049974
vt 0.863567 0.024269
vt 0.714939 0.003823
vt 0.714939 0.414457
vt 0.690557 0.414457
vt 0.519621 0.585543
vt 0.519621 0.569200
vt 0.542991 0.569200
vt 0.756546 0.386760
vt 0.756546 0.366314
vt 0.779915 0.366314
vt 0.647937 0.003823
vt 0.647937 0.569200
vt 0.624567 0.569200
vt 0.747427 0.003823
vt 0.747427 0.414457
vt 0.724057 0.414457
vt 0.657056 0.414457
vt 0.657055 0.003823
vt 0.681438 0.003823
vt 0.756546 0.358668
vt 0.756546 0.338222
vt 0.779915 0.338222
vt 0.615449 0.569200
vt 0.591067 0.569200
vt 0.591066 0.003823
vt 0.866028 0.442549
vt 0.866028 0.422103
vt 0.889398 0.422103
vt 0.557565 0.003823
vt 0.581948 0.003823
vt 0.581948 0.569200
vt 0.863567 0.003823
vt 0.886937 0.003823
vt 0.858111 0.153174
vt 0.858111 0.141456
vt 0.892780 0.141456
vt 0.513778 0.569200
vt 0.513778 0.003823
vt 0.519621 0.003823
vt 0.542991 0.003823
vt 0.548447 0.003823
vt 0.513778 0.585543
vt 0.542991 0.585543
vt 0.548447 0.569200
vt 0.513778 0.996177
vt 0.542991 0.996177
vt 0.548447 0.585543
vt 0.104162 0.422628
vt 0.118685 0.996177
vt 0.085705 0.996177
vt 0.060459 0.985520
vt 0.046484 0.987304
vt 0.074434 0.987304
vt 0.336878 0.577372
vt 0.363049 0.012696
vt 0.377024 0.014480
vt 0.004559 0.003823
vt 0.035212 0.003823
vt 0.004559 0.414457
vt 0.307149 0.012696
vt 0.318421 0.003823
vt 0.046484 0.012342
vt 0.237275 0.569200
vt 0.279200 0.012696
vt 0.858110 0.024269
vt 0.886937 0.024269
vt 0.892779 0.024269
vt 0.858111 0.129737
vt 0.858111 0.119970
vt 0.892779 0.119970
vt 0.894854 0.510594
vt 0.894855 0.538250
vt 0.860186 0.538250
vt 0.894855 0.548017
vt 0.894855 0.559735
vt 0.860186 0.559735
vt 0.858111 0.092314
vt 0.892779 0.092314
vt 0.892779 0.082862
vt 0.858111 0.082862
vt 0.858111 0.071144
vt 0.858111 0.059425
vt 0.889398 0.442549
vt 0.894854 0.442549
vt 0.894854 0.468253
vt 0.860186 0.468253
vt 0.860186 0.477705
vt 0.894854 0.477705
vt 0.894854 0.489423
vt 0.860186 0.501142
vt 0.894854 0.501142
vt 0.860186 0.442549
vt 0.894855 0.581221
vt 0.894855 0.630047
vt 0.860186 0.630047
vt 0.894855 0.571454
vt 0.860186 0.581221
vt 0.858111 0.211767
vt 0.858111 0.162941
vt 0.892780 0.162941
vt 0.892779 0.059425
vt 0.279200 0.987658
vt 0.237275 0.585543
vt 0.892780 0.129737
vt 0.860186 0.548017
vt 0.892780 0.153174
vt 0.237275 0.003823
vt 0.267928 0.003823
vt 0.267928 0.996177
vt 0.237275 0.996177
vt 0.363049 0.987658
vt 0.351401 0.996177
vt 0.293175 0.014480
vt 0.144308 0.985520
vt 0.130333 0.987304
vt 0.228157 0.422628
vt 0.169930 0.996177
vt 0.158283 0.987304
vt 0.351401 0.003823
vt 0.318421 0.996177
vt 0.307149 0.987658
vt 0.293174 0.985520
vt 0.004559 0.430800
vt 0.035213 0.996177
vt 0.004559 0.996177
vt 0.228157 0.996177
vt 0.504660 0.003823
vt 0.469991 0.422628
vt 0.402646 0.996177
vt 0.390998 0.987658
vt 0.460873 0.577372
vt 0.402646 0.003823
vt 0.460873 0.003823
vt 0.377023 0.985520
vt 0.390998 0.012696
vt 0.060458 0.014480
vt 0.074433 0.012342
vt 0.085705 0.003823
vt 0.118685 0.003823
vt 0.130333 0.012342
vt 0.144308 0.014480
vt 0.460873 0.996177
vt 0.169930 0.003823
vt 0.228157 0.003823
vt 0.158282 0.012342
vt 0.967041 0.533569
vt 0.756546 0.003823
vt 0.932372 0.826681
vt 0.957273 0.226755
vt 0.923254 0.637693
vt 0.801429 0.834023
vt 0.851067 0.748855
vt 0.657055 0.834023
vt 0.557565 0.680666
vt 0.584541 0.688312
vt 0.966391 0.304277
vt 0.848992 0.219109
vt 0.993366 0.311923
vt 0.593659 0.792132
vt 0.887161 0.637693
vt 0.693149 0.834023
vt 0.848992 0.330576
vt 0.765336 0.834023
vt 0.858111 0.330576
vt 0.620634 0.576846
vt 0.968466 0.715215
vt 0.851067 0.525923
vt 0.968466 0.826681
vt 0.657055 0.748855
vt 0.930948 0.422103
vt 0.923254 0.749159
vt 0.758621 0.533569
vt 0.729242 0.834023
vt 0.964966 0.003823
vt 0.921179 0.226755
vt 0.967041 0.422103
vt 0.657055 0.533569
vt 0.860186 0.826681
vt 0.959348 0.637693
vt 0.928873 0.003823
vt 0.903973 0.611090
vt 0.749502 0.525923
vt 0.937991 0.192811
vt 0.722527 0.748855
vt 0.928873 0.115289
vt 0.690557 0.003823
vt 0.779915 0.386760
vt 0.624567 0.003823
vt 0.724057 0.003823
vt 0.681438 0.414457
vt 0.779915 0.358668
vt 0.615449 0.003823
vt 0.557566 0.569200
vt 0.519621 0.996177
vt 0.548447 0.996177
vt 0.860186 0.510594
vt 0.892779 0.071144
vt 0.860186 0.489423
vt 0.860186 0.571454
vt 0.892780 0.211767
vt 0.469991 0.003823
vn 1.000000 0.000000 0.000000
vn 0.000000 0.000000 -1.000000
vn -1.000000 0.000000 -0.000000
vn 0.000000 -1.000000 -0.000000
vn 0.000000 1.000000 0.000000
vn -0.000000 0.000000 1.000000
vn -0.137700 -0.990500 -0.000000
vn 0.638600 -0.769500 0.000000
vn 0.164400 0.986400 0.000000
vn 0.651000 -0.759100 0.000000
vn -0.635700 0.772000 0.000000
vn -0.623200 0.782100 0.000000
vn 0.137700 -0.990500 0.000000
vn 0.635700 0.772000 0.000000
vn -0.651000 -0.759100 -0.000000
vn -0.164400 0.986400 -0.000000
vn 0.623200 0.782100 0.000000
vn -0.638600 -0.769500 0.000000
s off
f 1/1/1 2/2/1 6/3/1
f 2/4/2 3/5/2 7/6/2
f 3/7/3 4/8/3 8/9/3
f 4/10/4 3/11/4 2/12/4
f 5/13/5 6/14/5 7/15/5
f 9/16/1 10/17/1 14/18/1
f 10/19/2 11/20/2 15/21/2
f 11/22/3 12/23/3 16/24/3
f 12/25/4 11/26/4 10/27/4
f 13/28/5 14/29/5 15/30/5
f 17/31/1 18/32/1 22/33/1
f 18/34/2 19/35/2 23/36/2
f 19/37/3 20/38/3 24/39/3
f 20/40/4 19/41/4 18/42/4
f 21/43/5 22/44/5 23/45/5
f 25/46/1 26/47/1 30/48/1
f 26/49/2 27/50/2 31/51/2
f 27/52/3 28/53/3 32/54/3
f 28/55/4 27/56/4 26/57/4
f 29/58/5 30/59/5 31/60/5
f 33/61/1 34/62/1 38/63/1
f 34/64/2 35/65/2 39/66/2
f 35/67/3 36/68/3 40/69/3
f 36/70/4 35/71/4 34/72/4
f 37/73/5 38/74/5 39/75/5
f 41/76/1 42/77/1 46/78/1
f 42/79/2 43/80/2 47/81/2
f 43/82/3 44/83/3 48/84/3
f 44/85/4 43/86/4 42/87/4
f 45/88/5 46/89/5 47/90/5
f 49/91/1 50/92/1 54/93/1
f 50/94/2 51/95/2 55/96/2
f 51/97/3 52/98/3 56/99/3
f 52/100/4 51/101/4 50/102/4
f 53/103/5 54/104/5 55/105/5
f 57/106/1 58/107/1 62/108/1
f 58/109/2 59/110/2 63/111/2
f 59/112/3 60/113/3 64/114/3
f 60/115/4 59/116/4 58/117/4
f 61/118/5 62/119/5 63/120/5
f 77/121/1 70/122/1 73/123/1
f 109/124/4 108/125/4 72/126/4
f 74/127/2 82/128/2 90/129/2
f 82/130/3 79/131/3 78/132/3
f 81/133/4 89/134/4 90/135/4
f 88/136/3 86/137/3 84/138/3
f 85/139/3 90/140/3 89/141/3
f 81/142/6 71/143/6 83/144/6
f 79/145/5 88/146/5 87/147/5
f 76/148/2 86/149/2 88/150/2
f 74/151/5 85/152/5 83/153/5
f 78/154/6 87/155/6 84/156/6
f 72/126/4 84/157/4 86/158/4
f 134/159/7 100/160/7 102/161/7
f 111/162/3 66/163/3 76/164/3
f 78/132/3 72/165/3 65/166/3
f 120/167/3 111/162/3 79/131/3
f 81/168/3 78/132/3 123/169/3
f 68/170/3 120/167/3 82/130/3
f 71/171/3 81/168/3 124/172/3
f 110/173/2 93/174/2 104/175/2
f 110/173/2 105/176/2 118/177/2
f 110/173/2 104/175/2 125/178/2
f 117/179/6 130/180/6 100/181/6
f 68/182/2 112/183/2 120/184/2
f 117/179/6 126/185/6 106/186/6
f 112/183/2 121/187/2 120/184/2
f 110/173/2 125/178/2 105/176/2
f 117/179/6 123/188/6 119/189/6
f 108/125/4 65/190/4 72/126/4
f 109/124/4 76/191/4 66/192/4
f 130/193/8 94/194/8 93/195/8
f 115/196/5 91/197/5 92/198/5
f 131/199/9 99/200/9 96/201/9
f 94/194/4 106/202/4 104/203/4
f 125/204/7 126/205/7 107/206/7
f 119/207/10 108/125/10 109/124/10
f 71/208/5 67/209/5 114/210/5
f 71/208/5 114/210/5 112/211/5
f 121/212/9 122/213/9 103/214/9
f 127/215/11 128/216/11 115/196/11
f 68/217/5 74/151/5 112/211/5
f 98/218/5 69/219/5 75/220/5
f 133/221/12 98/218/12 97/222/12
f 70/223/4 95/224/4 101/225/4
f 107/206/13 119/207/13 118/226/13
f 122/227/6 124/228/6 117/179/6
f 114/210/14 122/213/14 121/212/14
f 104/203/15 106/202/15 126/205/15
f 103/214/16 128/216/16 127/215/16
f 100/160/13 130/193/13 129/229/13
f 91/197/17 131/199/17 132/230/17
f 95/224/18 134/159/18 135/231/18
f 96/201/16 99/200/16 133/221/16
f 123/188/6 65/232/6 108/233/6
f 114/234/6 67/235/6 124/228/6
f 131/236/6 91/237/6 117/179/6
f 117/179/6 107/238/6 126/185/6
f 110/173/2 102/239/2 129/240/2
f 80/241/2 101/242/2 135/243/2
f 117/179/6 106/186/6 94/244/6
f 123/188/6 108/233/6 119/189/6
f 91/237/6 115/245/6 117/179/6
f 128/246/6 103/247/6 117/179/6
f 122/227/6 114/234/6 124/228/6
f 111/248/2 109/249/2 66/250/2
f 80/241/2 73/251/2 101/242/2
f 69/252/1 77/121/1 80/253/1
f 98/254/6 133/255/6 77/256/6
f 77/256/6 95/257/6 70/258/6
f 111/248/2 118/177/2 109/249/2
f 115/245/6 128/246/6 117/179/6
f 99/259/6 131/236/6 117/179/6
f 110/173/2 129/240/2 93/174/2
f 117/179/6 100/181/6 134/260/6
f 110/173/2 80/241/2 135/243/2
f 117/179/6 94/244/6 130/180/6
f 77/256/6 134/260/6 95/257/6
f 117/179/6 124/228/6 123/188/6
f 120/184/2 110/173/2 111/248/2
f 121/187/2 113/261/2 110/173/2
f 113/261/2 127/262/2 110/173/2
f 116/263/2 92/264/2 110/173/2
f 132/265/2 96/266/2 110/173/2
f 127/262/2 116/263/2 110/173/2
f 92/264/2 132/265/2 110/173/2
f 133/255/6 99/259/6 117/179/6
f 69/267/6 98/254/6 77/256/6
f 97/268/2 75/269/2 80/241/2
f 136/270/2 97/268/2 80/241/2
f 136/270/2 80/241/2 110/173/2
f 5/271/1 1/1/1 6/3/1
f 6/272/2 2/4/2 7/6/2
f 7/273/3 3/7/3 8/9/3
f 1/274/4 4/10/4 2/12/4
f 8/275/5 5/13/5 7/15/5
f 13/276/1 9/16/1 14/18/1
f 14/277/2 10/19/2 15/21/2
f 15/278/3 11/22/3 16/24/3
f 9/279/4 12/25/4 10/27/4
f 16/280/5 13/28/5 15/30/5
f 21/281/1 17/31/1 22/33/1
f 22/282/2 18/34/2 23/36/2
f 23/283/3 19/37/3 24/39/3
f 17/284/4 20/40/4 18/42/4
f 24/285/5 21/43/5 23/45/5
f 29/286/1 25/46/1 30/48/1
f 30/287/2 26/49/2 31/51/2
f 31/288/3 27/52/3 32/54/3
f 25/289/4 28/55/4 26/57/4
f 32/290/5 29/58/5 31/60/5
f 37/291/1 33/61/1 38/63/1
f 38/292/2 34/64/2 39/66/2
f 39/293/3 35/67/3 40/69/3
f 33/294/4 36/70/4 34/72/4
f 40/295/5 37/73/5 39/75/5
f 45/296/1 41/76/1 46/78/1
f 46/297/2 42/79/2 47/81/2
f 47/298/3 43/82/3 48/84/3
f 41/299/4 44/85/4 42/87/4
f 48/300/5 45/88/5 47/90/5
f 53/301/1 49/91/1 54/93/1
f 54/302/2 50/94/2 55/96/2
f 55/303/3 51/97/3 56/99/3
f 49/304/4 52/100/4 50/102/4
f 56/305/5 53/103/5 55/105/5
f 61/306/1 57/106/1 62/108/1
f 62/307/2 58/109/2 63/111/2
f 63/308/3 59/112/3 64/114/3
f 57/309/4 60/115/4 58/117/4
f 64/310/5 61/118/5 63/120/5
f 80/253/1 77/121/1 73/123/1
f 76/191/4 109/124/4 72/126/4
f 85/311/2 74/127/2 90/129/2
f 81/168/3 82/130/3 78/132/3
f 82/312/4 81/133/4 90/135/4
f 87/313/3 88/136/3 84/138/3
f 83/314/3 85/139/3 89/141/3
f 89/315/6 81/142/6 83/144/6
f 78/316/5 79/145/5 87/147/5
f 79/317/2 76/148/2 88/150/2
f 71/208/5 74/151/5 83/153/5
f 72/318/6 78/154/6 84/156/6
f 76/191/4 72/126/4 86/158/4
f 135/231/7 134/159/7 102/161/7
f 79/131/3 111/162/3 76/164/3
f 123/169/3 78/132/3 65/166/3
f 82/130/3 120/167/3 79/131/3
f 124/172/3 81/168/3 123/169/3
f 74/319/3 68/170/3 82/130/3
f 67/320/3 71/171/3 124/172/3
f 111/248/2 110/173/2 118/177/2
f 107/238/6 117/179/6 119/189/6
f 129/229/8 130/193/8 93/195/8
f 116/321/5 115/196/5 92/198/5
f 132/230/9 131/199/9 96/201/9
f 93/195/4 94/194/4 104/203/4
f 105/322/7 125/204/7 107/206/7
f 118/226/10 119/207/10 109/124/10
f 74/151/5 71/208/5 112/211/5
f 113/323/9 121/212/9 103/214/9
f 116/321/11 127/215/11 115/196/11
f 97/222/5 98/218/5 75/220/5
f 136/324/12 133/221/12 97/222/12
f 73/325/4 70/223/4 101/225/4
f 105/322/13 107/206/13 118/226/13
f 103/247/6 122/227/6 117/179/6
f 112/211/14 114/210/14 121/212/14
f 125/204/15 104/203/15 126/205/15
f 113/323/16 103/214/16 127/215/16
f 102/161/13 100/160/13 129/229/13
f 92/198/17 91/197/17 132/230/17
f 101/225/18 95/224/18 135/231/18
f 136/324/16 96/201/16 133/221/16
f 75/326/1 69/252/1 80/253/1
f 77/256/6 117/179/6 134/260/6
f 102/239/2 110/173/2 135/243/2
f 120/184/2 121/187/2 110/173/2
f 77/256/6 133/255/6 117/179/6
f 96/266/2 136/270/2 110/173/2
