# Blender v2.72 (sub 0) OBJ File: 'Computer2.blend'
# www.blender.org
mtllib cpu.mtl
o Plane.006_Plane.010
v 0.149115 0.001183 -0.149115
v -0.149115 0.001183 -0.149115
v 0.149115 0.001183 0.149115
v -0.149115 0.001183 0.149115
v 0.144791 0.034178 -0.144791
v -0.144791 0.034178 -0.144791
v 0.144791 0.034178 0.144791
v -0.144791 0.034178 0.144791
v -0.149115 0.016765 0.149115
v 0.149115 0.016765 0.149115
v -0.149115 0.016765 -0.149115
v 0.149115 0.016765 -0.149115
v 0.160946 0.001183 -0.160946
v -0.160947 0.001183 -0.160946
v 0.160946 0.001183 0.160947
v -0.160946 0.001183 0.160947
v -0.160946 0.009128 0.160947
v 0.160946 0.009128 0.160947
v -0.160947 0.009128 -0.160946
v 0.160946 0.009128 -0.160946
vn 0.000000 -1.000000 -0.000000
vn -0.000000 1.000000 0.000000
vn 0.000000 0.241000 0.970500
vn -0.970500 0.241000 0.000000
vn -0.000000 0.241000 -0.970500
vn 0.970500 0.241000 -0.000000
vn -0.000000 0.840200 0.542300
vn -0.542300 0.840200 0.000000
vn -0.000000 0.840200 -0.542300
vn 0.542300 0.840200 -0.000000
vn 0.000000 0.000000 1.000000
vn -1.000000 0.000000 0.000000
vn -0.000000 0.000000 -1.000000
vn 1.000000 0.000000 -0.000000
usemtl Material.002
s off
f 1//1 3//1 4//1 2//1
f 7//2 5//2 6//2 8//2
f 9//3 10//3 7//3 8//3
f 11//4 9//4 8//4 6//4
f 12//5 11//5 6//5 5//5
f 10//6 12//6 5//6 7//6
f 10//7 9//7 17//7 18//7
f 9//8 11//8 19//8 17//8
f 11//9 12//9 20//9 19//9
f 12//10 10//10 18//10 20//10
f 16//11 15//11 18//11 17//11
f 14//12 16//12 17//12 19//12
f 13//13 14//13 19//13 20//13
f 15//14 13//14 20//14 18//14
f 4//1 3//1 15//1 16//1
f 2//1 4//1 16//1 14//1
f 1//1 2//1 14//1 13//1
f 3//1 1//1 13//1 15//1
