# Blender v2.72 (sub 0) OBJ File: 'Computer6_texPlacement.blend'
# www.blender.org
o Plane.011
v -11.037369 0.004642 0.322425
v 2.531815 0.004642 4.854047
v -10.348373 0.004642 -4.616747
v -2.433870 0.004642 2.136130
v -2.777249 0.004642 1.480687
v -3.762339 0.004642 -3.693230
v -3.202155 0.004642 7.615134
v 2.040933 0.004642 8.354759
v -2.615444 0.004642 1.551454
v -2.477233 0.004642 1.669714
v -2.408456 0.004642 1.840330
v -2.408437 0.004642 2.018237
v 2.999805 0.004642 1.566509
v 3.588638 0.004642 -2.664473
v 0.683631 0.004642 -3.071823
v -1.361215 0.004642 -3.358559
v -11.037369 -0.109096 0.322425
v 2.531815 -0.109096 4.854047
v -10.348373 -0.109096 -4.616747
v -2.433870 -0.109096 2.136130
v -2.777249 -0.109096 1.480687
v -3.762339 -0.109096 -3.693230
v -3.202155 -0.109096 7.615134
v 2.040933 -0.109096 8.354759
v -2.615444 -0.109096 1.551454
v -2.477233 -0.109096 1.669714
v -2.408456 -0.109096 1.840330
v -2.408437 -0.109096 2.018237
v 2.999805 -0.109096 1.566509
v 3.588638 -0.109096 -2.664473
v 0.683631 -0.109096 -3.071823
v -1.361215 -0.109096 -3.358559
vt 0.251633 0.263773
vt 0.246282 0.264212
vt 0.157233 0.000345
vt 0.273033 0.285694
vt 0.494852 0.370112
vt 0.494852 0.701527
vt 0.000195 0.264212
vt 0.000000 0.000346
vt 0.270915 0.277219
vt 0.494941 0.249300
vt 0.266560 0.269580
vt 0.259469 0.265005
vt 0.494941 0.000220
vt 0.652174 0.701181
vt 0.741223 0.437314
vt 0.746573 0.437754
vt 0.989793 0.000000
vt 0.989793 0.331414
vt 0.767974 0.415833
vt 0.494941 0.701181
vt 0.495136 0.437314
vt 0.989882 0.452227
vt 0.765856 0.424308
vt 0.989882 0.555125
vt 0.761500 0.431947
vt 0.989882 0.701307
vt 0.754410 0.436522
vt 0.799876 0.701527
vt 0.015177 0.701527
vt 0.015177 0.950013
vt 0.010118 0.950013
vt 0.994941 0.969873
vt 1.000000 0.969873
vt 1.000000 0.978360
vt 0.010118 0.701527
vt 0.010118 0.959675
vt 0.005059 0.959675
vt 0.005059 0.724331
vt 0.005059 1.000000
vt 0.000000 1.000000
vt 0.994941 0.000000
vt 0.994941 0.146182
vt 0.989882 0.146182
vt 0.994941 0.369893
vt 0.994941 0.701307
vt 1.000000 0.176158
vt 1.000000 0.341638
vt 0.994941 0.341638
vt 0.005059 0.718345
vt 0.000000 0.724331
vt 0.005059 0.701527
vt 0.005059 0.709546
vt 0.000000 0.709546
vt 1.000000 0.961090
vt 1.000000 0.000000
vt 0.994941 0.176158
vt 0.994941 0.249080
vt 0.989882 0.249080
vt 1.000000 0.554514
vt 0.994941 0.961090
vt 0.994941 0.554514
vt 0.989882 0.369893
vt 0.304935 0.000000
vt 0.273033 0.701349
vt 0.494941 0.146402
vt 0.767974 0.000177
vt 0.994941 0.978360
vt 0.989882 0.000000
vt 0.000000 0.718345
vt 0.000000 0.701527
vn 0.000000 1.000000 0.000000
vn 0.000000 -1.000000 -0.000000
vn -0.990400 0.000000 -0.138200
vn -0.650100 0.000000 0.759800
vn -0.139700 0.000000 0.990200
vn -0.990300 0.000000 -0.138900
vn 0.138900 0.000000 -0.990300
vn 0.990000 0.000000 0.140900
vn -0.977500 0.000000 -0.210900
vn -0.927500 0.000000 0.373900
vn -0.400700 0.000000 0.916200
vn 0.990300 0.000000 0.138900
vn -0.138900 0.000000 0.990300
vn 0.990500 0.000000 0.137800
vn 0.138000 0.000000 -0.990400
vn -1.000000 0.000000 0.000100
s off
f 12/1/1 4/2/1 2/3/1
f 5/4/1 6/5/1 3/6/1
f 4/2/1 7/7/1 8/8/1
f 6/5/1 5/4/1 9/9/1
f 16/10/1 9/9/1 10/11/1
f 10/11/1 11/12/1 14/13/1
f 14/13/1 11/12/1 12/1/1
f 18/14/2 20/15/2 28/16/2
f 19/17/2 22/18/2 21/19/2
f 24/20/2 23/21/2 20/15/2
f 22/18/2 32/22/2 25/23/2
f 32/22/2 31/24/2 26/25/2
f 30/26/2 27/27/2 26/25/2
f 30/26/2 29/28/2 28/16/2
f 19/29/3 17/30/3 1/31/3
f 9/32/4 25/33/4 26/34/4
f 23/35/5 24/36/5 8/37/5
f 20/38/6 23/39/6 7/40/6
f 30/41/7 31/42/7 15/43/7
f 22/44/7 19/45/7 3/26/7
f 18/46/8 29/47/8 13/48/8
f 28/49/9 20/38/9 4/50/9
f 26/51/10 27/52/10 11/53/10
f 21/54/11 25/33/11 9/32/11
f 24/55/12 18/46/12 2/56/12
f 31/42/7 32/57/7 16/58/7
f 17/59/13 21/54/13 5/60/13
f 29/47/14 30/59/14 14/61/14
f 32/57/15 22/44/15 6/62/15
f 11/53/16 27/52/16 28/49/16
f 13/63/1 12/1/1 2/3/1
f 1/64/1 5/4/1 3/6/1
f 2/3/1 4/2/1 8/8/1
f 16/10/1 6/5/1 9/9/1
f 15/65/1 16/10/1 10/11/1
f 15/65/1 10/11/1 14/13/1
f 13/63/1 14/13/1 12/1/1
f 29/28/2 18/14/2 28/16/2
f 17/66/2 19/17/2 21/19/2
f 18/14/2 24/20/2 20/15/2
f 21/19/2 22/18/2 25/23/2
f 25/23/2 32/22/2 26/25/2
f 31/24/2 30/26/2 26/25/2
f 27/27/2 30/26/2 28/16/2
f 3/35/3 19/29/3 1/31/3
f 10/67/4 9/32/4 26/34/4
f 7/51/5 23/35/5 8/37/5
f 4/50/6 20/38/6 7/40/6
f 14/68/7 30/41/7 15/43/7
f 6/62/7 22/44/7 3/26/7
f 2/56/8 18/46/8 13/48/8
f 12/69/9 28/49/9 4/50/9
f 10/70/10 26/51/10 11/53/10
f 5/60/11 21/54/11 9/32/11
f 8/41/12 24/55/12 2/56/12
f 15/43/7 31/42/7 16/58/7
f 1/61/13 17/59/13 5/60/13
f 13/48/14 29/47/14 14/61/14
f 16/58/15 32/57/15 6/62/15
f 12/69/16 11/53/16 28/49/16
